[
  {
    "username": "TheRainbowGamerGirl",
    "quote": "choked on myself",
    "game": "Beat Saber",
    "date": "12/11/2019"
  },
  {
    "username": "KissItBett3r",
    "quote": "We're going to ginish on an enormous penis",
    "game": "Beat Saber",
    "date": "12/11/2019"
  },
  {
    "username": "KissItBett3r",
    "quote": "I will finish on an enormous penis, but I won't start on one",
    "game": "Beat Saber",
    "date": "14/11/2019"
  },
  {
    "username": "KissItBett3r",
    "quote": "Grumpy is a livestyle, not a mood",
    "game": "Beat Saber",
    "date": "21/11/2019"
  },
  {
    "username": "KissItBett3r",
    "quote": "Mohero: I've never done Shrek before, Rainbow: I guess it's similar to Smurfs, right?",
    "game": "Beat Saber",
    "date": "12/12/2019"
  },
  {
    "username": "KissItBett3r",
    "quote": "ooOOoo it's so haaard therai3Gasm",
    "game": "Beat Saber",
    "date": "2/1/2020"
  },
  {
    "username": "KissItBett3r",
    "quote": "I HOPE Kirrix is checking my ass out!",
    "game": "Beat Saber",
    "date": "2/1/2020"
  },
  {
    "username": "kissitbett3r",
    "quote": "\"I mean, fuck the fireworks... not literally.\"",
    "game": "Beat Saber",
    "date": "7/1/2020"
  },
  {
    "username": "kissitbett3r",
    "quote": "\"Three more songs, and then I'm going to sit on Kiss's penis\"",
    "game": "Beat Saber",
    "date": "7/1/2020"
  },
  {
    "username": "kissitbett3r",
    "quote": "\"Right below you, just where I want to be Krayn\"",
    "game": "Beat Saber",
    "date": "9/1/2020"
  },
  {
    "username": "vanya_pon",
    "quote": "Is this what my mods do now?They flip me off!",
    "game": "Beat Saber",
    "date": "9/1/2020"
  },
  {
    "username": "kissitbett3r",
    "quote": "\"Sometimes that happens, I just don't last long\"",
    "game": "Beat Saber",
    "date": "14/1/2020"
  },
  {
    "username": "kissitbett3r",
    "quote": "\"I've got a bigger penis than LZ now\"",
    "game": "Beat Saber",
    "date": "16/1/2020"
  },
  {
    "username": "vanya_pon",
    "quote": "Thank you, mod-abusing mod!",
    "game": "Beat Saber",
    "date": "16/1/2020"
  },
  {
    "username": "vanya_pon",
    "quote": "So insensitive, case lives matter. (Gordykegs)",
    "game": "Beat Saber",
    "date": "6/2/2020"
  },
  {
    "username": "thekirrix",
    "quote": "\"He was shaking his ass nicely last night.\"",
    "game": "Beat Saber",
    "date": "18/2/2020"
  },
  {
    "username": "thekirrix",
    "quote": "\"I'm playing with Kiss and Kirrix's enormous penis left handed today.\"",
    "game": "Beat Saber",
    "date": "18/2/2020"
  },
  {
    "username": "kissitbett3r",
    "quote": "\"I gotta learn to count\"",
    "game": "Beat Saber",
    "date": "17/3/2020"
  },
  {
    "username": "mantleferox",
    "quote": "That's not boat, dammit! Why is my floor on my head?!",
    "game": "Beat Saber",
    "date": "24/3/2020"
  },
  {
    "username": "mantleferox",
    "quote": "And don't mind the birds that live in my water bottle.",
    "game": "Beat Saber",
    "date": "24/3/2020"
  },
  {
    "username": "mantleferox",
    "quote": "It IS a great song! One day I'll get through ti!",
    "game": "Beat Saber",
    "date": "26/3/2020"
  },
  {
    "username": "mantleferox",
    "quote": "I made a POUND! And.... broke my leg. ... It's fine!",
    "game": "Beat Saber",
    "date": "26/3/2020"
  },
  {
    "username": "mantleferox",
    "quote": "There's blocks in this birdie somewhere! I know there is!",
    "game": "Beat Saber",
    "date": "31/3/2020"
  },
  {
    "username": "mantleferox",
    "quote": "See bombs are NICE!! They're free!",
    "game": "Beat Saber",
    "date": "31/3/2020"
  },
  {
    "username": "mantleferox",
    "quote": "That was a cheeky block behind the wall there.",
    "game": "Beat Saber",
    "date": "31/3/2020"
  },
  {
    "username": "mantleferox",
    "quote": "I didn't know I had a hype command! The things you learn in your own stream!",
    "game": "Beat Saber",
    "date": "31/3/2020"
  },
  {
    "username": "mantleferox",
    "quote": "Waaaait, this isn't my chat. There's no bombs or anything!",
    "game": "Beat Saber",
    "date": "7/4/2020"
  },
  {
    "username": "mantleferox",
    "quote": "I actually can't reach the blocks because they're in my neighbour's HOUSE.",
    "game": "Beat Saber",
    "date": "7/4/2020"
  },
  {
    "username": "mantleferox",
    "quote": "Don't make me put no fail on!",
    "game": "Beat Saber",
    "date": "7/4/2020"
  },
  {
    "username": "thekirrix",
    "quote": "To *speaking to Kirrix* \"I love your bits.\"",
    "game": "Beat Saber",
    "date": "9/4/2020"
  },
  {
    "username": "mantleferox",
    "quote": "Look a that! I've got frames! I can see what I'm doing!",
    "game": "Beat Saber",
    "date": "14/4/2020"
  },
  {
    "username": "mantleferox",
    "quote": "Come here, little birdies!",
    "game": "Beat Saber",
    "date": "14/4/2020"
  },
  {
    "username": "mantleferox",
    "quote": "No, no no no! I need some water! Let's drink these birdies!",
    "game": "Beat Saber",
    "date": "14/4/2020"
  },
  {
    "username": "mantleferox",
    "quote": "It's quite warm in here.... it's probably because my computer's on fire.",
    "game": "Beat Saber",
    "date": "16/4/2020"
  },
  {
    "username": "mantleferox",
    "quote": "Stop putting me in a hamper!",
    "game": "Beat Saber",
    "date": "16/4/2020"
  },
  {
    "username": "mantleferox",
    "quote": "When was the last time I said I HATE JUMPS?",
    "game": "Beat Saber",
    "date": "16/4/2020"
  },
  {
    "username": "mantleferox",
    "quote": "What do you think I am, left-handed?!",
    "game": "Beat Saber",
    "date": "16/4/2020"
  },
  {
    "username": "mantleferox",
    "quote": "Thank you Mantle, that.... was a noise I've never heard!",
    "game": "Just Chatting",
    "date": "20/4/2020"
  },
  {
    "username": "mantleferox",
    "quote": "I'm extra nice to the blocks. There, there little blocks... SLAP!!",
    "game": "Beat Saber",
    "date": "28/4/2020"
  },
  {
    "username": "mantleferox",
    "quote": "It's okay, I didn't want to see this game anyway!",
    "game": "Beat Saber",
    "date": "30/4/2020"
  },
  {
    "username": "mantleferox",
    "quote": "Ah god, I wish I could see.",
    "game": "Beat Saber",
    "date": "30/4/2020"
  },
  {
    "username": "mantleferox",
    "quote": "I could just see this faint Mantle under the floor of the map!",
    "game": "Beat Saber",
    "date": "5/5/2020"
  },
  {
    "username": "mantleferox",
    "quote": "I'm well known for the birds that live in my bottle.",
    "game": "Beat Saber",
    "date": "5/5/2020"
  },
  {
    "username": "mantleferox",
    "quote": "I'd like some frames now, please!",
    "game": "Beat Saber",
    "date": "7/5/2020"
  },
  {
    "username": "mantleferox",
    "quote": "SO MUCH GLITTER IN MY FACE!!",
    "game": "Beat Saber",
    "date": "7/5/2020"
  },
  {
    "username": "mantleferox",
    "quote": "THAT'S TWO SONGS OF GLITTER!!",
    "game": "Beat Saber",
    "date": "12/5/2020"
  },
  {
    "username": "mantleferox",
    "quote": "I honestly have no idea what's happening today!!",
    "game": "Beat Saber",
    "date": "12/5/2020"
  },
  {
    "username": "mantleferox",
    "quote": "Everybody likes a little bit of PP....",
    "game": "Beat Saber",
    "date": "12/5/2020"
  },
  {
    "username": "mantleferox",
    "quote": "We're all derpy! I mean, even Pikachu is derpy!",
    "game": "Beat Saber",
    "date": "12/5/2020"
  },
  {
    "username": "mantleferox",
    "quote": "It's a Bomberman!",
    "game": "Beat Saber",
    "date": "19/5/2020"
  },
  {
    "username": "mantleferox",
    "quote": "My arms are really feeling it today!",
    "game": "Beat Saber",
    "date": "19/5/2020"
  },
  {
    "username": "mantleferox",
    "quote": "There's lots of bloody DANCING.",
    "game": "Beat Saber",
    "date": "19/5/2020"
  },
  {
    "username": "mantleferox",
    "quote": "It's so hard when you can't see what you're doing.",
    "game": "Beat Saber",
    "date": "19/5/2020"
  },
  {
    "username": "mantleferox",
    "quote": "How's that for fucking noticing you?!",
    "game": "Beat Saber",
    "date": "19/5/2020"
  },
  {
    "username": "therainbowgamergirl",
    "quote": "\"I ate all the meat and you want to know the best bit?I loved it\"",
    "game": "Beat Saber",
    "date": "21/5/2020"
  },
  {
    "username": "mantleferox",
    "quote": "Those of you that are not here, it's not very nice to see you not here.",
    "game": "Beat Saber",
    "date": "21/5/2020"
  },
  {
    "username": "mantleferox",
    "quote": "Stream is now officially validated!",
    "game": "Beat Saber",
    "date": "21/5/2020"
  },
  {
    "username": "mantleferox",
    "quote": "Don't throw bits at me and say \"don't mind me!\"",
    "game": "Beat Saber",
    "date": "21/5/2020"
  },
  {
    "username": "mantleferox",
    "quote": "I CAN'T SEE A THING, but it's dead smooth!",
    "game": "Beat Saber",
    "date": "4/6/2020"
  },
  {
    "username": "mantleferox",
    "quote": "You should not be on the the ceiling.",
    "game": "Beat Saber",
    "date": "4/6/2020"
  },
  {
    "username": "mantleferox",
    "quote": "Well when I said put the new machine to the test, this isn't quite what I had in mind.",
    "game": "Beat Saber",
    "date": "4/6/2020"
  },
  {
    "username": "mantleferox",
    "quote": "Well Welcome to Javascript, where 1 + 1 does not always equal 2!",
    "game": "Beat Saber",
    "date": "4/6/2020"
  },
  {
    "username": "mantleferox",
    "quote": "And next stream I'll have FEET!",
    "game": "Beat Saber",
    "date": "4/6/2020"
  },
  {
    "username": "mantleferox",
    "quote": "Lag is now undefined!",
    "game": "Beat Saber",
    "date": "4/6/2020"
  },
  {
    "username": "mantleferox",
    "quote": "Thank you for all the glitter in my face!",
    "game": "Beat Saber",
    "date": "9/6/2020"
  },
  {
    "username": "mantleferox",
    "quote": "Don't mind me, just testing my latency.",
    "game": "Beat Saber",
    "date": "9/6/2020"
  },
  {
    "username": "mantleferox",
    "quote": "Damn socks? Hey, now you can see them!",
    "game": "Beat Saber",
    "date": "11/6/2020"
  },
  {
    "username": "mantleferox",
    "quote": "Trust me, if these were real lightsabers, I would be in many, many small pieces.",
    "game": "Beat Saber",
    "date": "11/6/2020"
  },
  {
    "username": "mantleferox",
    "quote": "Best friends? Hell no, we're lovers now!",
    "game": "Beat Saber",
    "date": "23/6/2020"
  },
  {
    "username": "mantleferox",
    "quote": "That's NOT one or two bombs! And that's a LOT of glitter!",
    "game": "Beat Saber",
    "date": "23/6/2020"
  },
  {
    "username": "mantleferox",
    "quote": "How much glitter is there?!",
    "game": "Beat Saber",
    "date": "23/6/2020"
  },
  {
    "username": "kissitbett3r",
    "quote": "\"Well, I do like my meat moheroBlush \"",
    "game": "Satisfactory",
    "date": "25/6/2020"
  },
  {
    "username": "mantleferox",
    "quote": "Mantle's found a keyboard!",
    "game": "Beat Saber",
    "date": "7/7/2020"
  },
  {
    "username": "mantleferox",
    "quote": "I don't mind having people's bits in my face. Generally.",
    "game": "Beat Saber",
    "date": "14/7/2020"
  },
  {
    "username": "mantleferox",
    "quote": "Mango's getting too good... we're going to have to find ways of slowing her down.",
    "game": "Beat Saber",
    "date": "21/7/2020"
  },
  {
    "username": "mantleferox",
    "quote": "WELL BLOODY DONE!",
    "game": "Beat Saber",
    "date": "21/7/2020"
  },
  {
    "username": "mantleferox",
    "quote": "I haven't even got to the glitter yet!",
    "game": "Beat Saber",
    "date": "21/7/2020"
  },
  {
    "username": "mantleferox",
    "quote": "It was a nice, pleasant, chilled stream... and then that Rainbow came in.",
    "game": "Beat Saber",
    "date": "21/7/2020"
  },
  {
    "username": "mantleferox",
    "quote": "Yeah, who DOESN'T do ranked songs with glitter and wobbles?!",
    "game": "Beat Saber",
    "date": "21/7/2020"
  },
  {
    "username": "mantleferox",
    "quote": "SteamVR just went \"Nah, I don't wanna play anymore!\"",
    "game": "Beat Saber",
    "date": "21/7/2020"
  },
  {
    "username": "mantleferox",
    "quote": "We'll have none of that real world in here!",
    "game": "Beat Saber",
    "date": "23/7/2020"
  },
  {
    "username": "therainbowgamergirl",
    "quote": "\"You have to eat your nuts first\"",
    "game": "Satisfactory",
    "date": "4/8/2020"
  },
  {
    "username": "therainbowgamergirl",
    "quote": "\"Yeah I love nuts\"",
    "game": "Satisfactory",
    "date": "4/8/2020"
  },
  {
    "username": "therainbowgamergirl",
    "quote": "\"I like eating my nuts specifically\"",
    "game": "Satisfactory",
    "date": "4/8/2020"
  },
  {
    "username": "therainbowgamergirl",
    "quote": "\"This isn't deep enough!\"",
    "game": "Satisfactory",
    "date": "11/8/2020"
  },
  {
    "username": "mohero_",
    "quote": "You know like those little dudes that ram you? @TheRainbowGamerGirl",
    "game": "Satisfactory",
    "date": "13/8/2020"
  },
  {
    "username": "mantleferox",
    "quote": "We might come back to it when we can see it.",
    "game": "Beat Saber",
    "date": "20/8/2020"
  },
  {
    "username": "mantleferox",
    "quote": "We don't auto-ban for links, but mods will KICK YOUR ASS.",
    "game": "Beat Saber",
    "date": "1/9/2020"
  },
  {
    "username": "mantleferox",
    "quote": "My arms are so dead now.",
    "game": "Beat Saber",
    "date": "1/9/2020"
  },
  {
    "username": "therainbowgamergirl",
    "quote": "Mau",
    "game": "Beat Saber",
    "date": "1/9/2020"
  },
  {
    "username": "mantleferox",
    "quote": "Who DOESN'T like glitter in their face?",
    "game": "Beat Saber",
    "date": "3/9/2020"
  },
  {
    "username": "mantleferox",
    "quote": "Nobody touches my beard. Only me.",
    "game": "Beat Saber",
    "date": "3/9/2020"
  },
  {
    "username": "mantleferox",
    "quote": "Twitch transcoding and me are just not a thing.",
    "game": "Beat Saber",
    "date": "3/9/2020"
  },
  {
    "username": "mantleferox",
    "quote": "See, despite the rumours, I can actually write SOME codes SOME times. I can't actually hit blocks, though.",
    "game": "Beat Saber",
    "date": "8/9/2020"
  },
  {
    "username": "mantleferox",
    "quote": "I think blocks are actually easier to hit when you can see them.",
    "game": "Beat Saber",
    "date": "8/9/2020"
  },
  {
    "username": "mantleferox",
    "quote": "You want T-rex arms? I'll give you T-rex arms.",
    "game": "Beat Saber",
    "date": "8/9/2020"
  },
  {
    "username": "mantleferox",
    "quote": "If you ever find yourself stuck in the middle of the sea, then Mantle is your friend.",
    "game": "Beat Saber",
    "date": "8/9/2020"
  },
  {
    "username": "vanya_pon",
    "quote": "I hit that cycle hard with my saber",
    "game": "Beat Saber",
    "date": "6/10/2020"
  },
  {
    "username": "kissitbett3r",
    "quote": "\"Not talking about Subway... Who doesn't want a footlong one in your mouth?\"",
    "game": "Beat Saber",
    "date": "12/1/2021"
  },
  {
    "username": "vanya_pon",
    "quote": "\"I woke up to shake your burrito\" - anynomous viewer Kappa",
    "game": "Beat Saber",
    "date": "21/1/2021"
  },
  {
    "username": "mantleferox",
    "quote": "Stream is confirmed. I've already been inundated with tech issues.",
    "game": "Beat Saber",
    "date": "26/1/2021"
  },
  {
    "username": "mantleferox",
    "quote": "Stupid jumps.",
    "game": "Beat Saber",
    "date": "26/1/2021"
  },
  {
    "username": "mantleferox",
    "quote": "Maybe I preferred him burying his bone in my green screen.",
    "game": "Beat Saber",
    "date": "26/1/2021"
  },
  {
    "username": "kissitbett3r",
    "quote": "By Gordy_Kegs: A Haiku for mohero. “They were sent to mun, they think they will be home soon, But they are all doomed”..... It’s titled. Mohero Space Program",
    "game": "Kerbal Space Program",
    "date": "4/2/2021"
  },
  {
    "username": "kissitbett3r",
    "quote": "\"They just... touched. moheroBlush \"",
    "game": "Kerbal Space Program",
    "date": "4/2/2021"
  },
  {
    "username": "kissitbett3r",
    "quote": "\"They can EVA for the last 300m okay? Bollocks to them.\"",
    "game": "Kerbal Space Program",
    "date": "4/2/2021"
  },
  {
    "username": "kissitbett3r",
    "quote": "\"Just don't ask questions, alright?\"",
    "game": "Kerbal Space Program",
    "date": "4/2/2021"
  },
  {
    "username": "kissitbett3r",
    "quote": "\"You'll redeem channel points... and my rocket will explode\" moheroBlush (lewd interpretation courtesy of KissIt)",
    "game": "Kerbal Space Program",
    "date": "4/2/2021"
  },
  {
    "username": "kissitbett3r",
    "quote": "\"Well I sort of screwed up the plan really, because... I... forgot about the plan. That's what happened.\"",
    "game": "Kerbal Space Program",
    "date": "4/2/2021"
  },
  {
    "username": "kissitbett3r",
    "quote": "\"Mate, mate! You know you want to!\"",
    "game": "Kerbal Space Program",
    "date": "11/2/2021"
  },
  {
    "username": "kissitbett3r",
    "quote": "\"Three of them up the bum! Wait, wut?\"",
    "game": "Kerbal Space Program",
    "date": "11/2/2021"
  },
  {
    "username": "kissitbett3r",
    "quote": "\"It's very hard to control something this long, you know.\" #selfbrag",
    "game": "Kerbal Space Program",
    "date": "11/2/2021"
  },
  {
    "username": "mantleferox",
    "quote": "Water's not deep enough? Well, get deeper water then!",
    "game": "Satisfactory",
    "date": "18/3/2021"
  },
  {
    "username": "kissitbett3r",
    "quote": "\"I'm just going to eat my nuts.\"",
    "game": "Satisfactory",
    "date": "15/4/2021"
  },
  {
    "username": "mantleferox",
    "quote": "My bot's still alive! My bot didn't die!",
    "game": "Satisfactory",
    "date": "16/4/2021"
  },
  {
    "username": "kissitbett3r",
    "quote": "\"It does go there, it's just a tight fit\" moheroBlush",
    "game": "Satisfactory",
    "date": "29/4/2021"
  },
  {
    "username": "mantleferox",
    "quote": "Computers, seriously.",
    "game": "Satisfactory",
    "date": "29/4/2021"
  },
  {
    "username": "kissitbett3r",
    "quote": "\"You should have seen me the other week. You could have seen my ass!\"",
    "game": "Satisfactory",
    "date": "25/5/2021"
  },
  {
    "username": "kissitbett3r",
    "quote": "\"Why is there death everywhere I go?\"",
    "game": "Satisfactory",
    "date": "8/6/2021"
  },
  {
    "username": "mantleferox",
    "quote": "Okay, look, you can tell I've died twice cause there's three cars here.",
    "game": "Satisfactory",
    "date": "24/6/2021"
  },
  {
    "username": "mantleferox",
    "quote": "If you don't have braided cables, you're doing it wrong.",
    "game": "Satisfactory",
    "date": "24/6/2021"
  },
  {
    "username": "kissitbett3r",
    "quote": "\"It's going to be tasty, tasty... disgusting stuff. It's going to be disgusting actually.\"",
    "game": "Oxygen Not Included",
    "date": "8/7/2021"
  },
  {
    "username": "kissitbett3r",
    "quote": "\"We've got enough food!! ... Somebody is suffocating >.> \"",
    "game": "Oxygen Not Included",
    "date": "8/7/2021"
  },
  {
    "username": "kissitbett3r",
    "quote": "\"Hopefully, fingers crossed, nobody dies while I'm away.\" *goes to make tea*",
    "game": "Oxygen Not Included",
    "date": "8/7/2021"
  },
  {
    "username": "kissitbett3r",
    "quote": "\"I don't care about your breathing... FIX IT!\"",
    "game": "Oxygen Not Included",
    "date": "8/7/2021"
  },
  {
    "username": "kissitbett3r",
    "quote": "\"Look, if they're dying of starvation, THAT ONE should eat. And then they'll be okay... probably.\"",
    "game": "Oxygen Not Included",
    "date": "13/7/2021"
  },
  {
    "username": "kissitbett3r",
    "quote": "\"If there are any more critters around... we are going to eat them...\"",
    "game": "Oxygen Not Included",
    "date": "13/7/2021"
  },
  {
    "username": "kissitbett3r",
    "quote": "\"A food shortage, still? But nobody's dead!\"",
    "game": "Oxygen Not Included",
    "date": "13/7/2021"
  },
  {
    "username": "kissitbett3r",
    "quote": "\"Alright, you may be pissed off, but that's no reason to destroy stuff... bitch.\" (pls note he was starving his duplicants at the time)",
    "game": "Oxygen Not Included",
    "date": "13/7/2021"
  },
  {
    "username": "kissitbett3r",
    "quote": "\"I'm not INTENTIONALLY starving them. In the long run, they're going to thank me.\"",
    "game": "Oxygen Not Included",
    "date": "13/7/2021"
  },
  {
    "username": "kissitbett3r",
    "quote": "\"One day, one day... I will do things in the right order. Today is NOT that day... but ONE DAY.\"",
    "game": "Oxygen Not Included",
    "date": "14/7/2021"
  },
  {
    "username": "kissitbett3r",
    "quote": "\"Unpause the game, starvation... Why are we still starving them?\"",
    "game": "Oxygen Not Included",
    "date": "22/7/2021"
  },
  {
    "username": "kissitbett3r",
    "quote": "\"It's not my problem he can't breathe! Just go on and ATTACK HIM!\"",
    "game": "Oxygen Not Included",
    "date": "22/7/2021"
  },
  {
    "username": "kissitbett3r",
    "quote": "\"Right... yup... Don't make them shower in polluted water. That's just mean.\"\\",
    "game": "Oxygen Not Included",
    "date": "22/7/2021"
  },
  {
    "username": "kissitbett3r",
    "quote": "\"The other thing that would get rid of their stress is eating. I've heard people like eating.\"",
    "game": "Oxygen Not Included",
    "date": "22/7/2021"
  },
  {
    "username": "kissitbett3r",
    "quote": "\"We'll just replace the dead [dupes] with new healthy ones! It's fine!\"",
    "game": "Oxygen Not Included",
    "date": "22/7/2021"
  },
  {
    "username": "kissitbett3r",
    "quote": "(longingly) \"Ohh... I'm missing my rod...\"",
    "game": "Satisfactory",
    "date": "27/7/2021"
  },
  {
    "username": "mantleferox",
    "quote": " \"It's really not that small\" Satisfactory and 3d printing",
    "game": "Satisfactory",
    "date": "26/8/2021"
  },
  {
    "username": "mantleferox",
    "quote": "There's no such thing as too many quotes in the quote system.",
    "game": "Satisfactory",
    "date": "26/8/2021"
  }
]